^C:\USERS\SHWETHA.B\DOCUMENTS\VISUAL STUDIO 2013\PROJECTS\MYAPPLICATION\MYAPPLICATION.CPP
C:\USERS\SHWETHA.B\DOCUMENTS\VISUAL STUDIO 2013\PROJECTS\MYAPPLICATION\DEBUG\VC120.PDB
C:\USERS\SHWETHA.B\DOCUMENTS\VISUAL STUDIO 2013\PROJECTS\MYAPPLICATION\DEBUG\VC120.IDB
C:\USERS\SHWETHA.B\DOCUMENTS\VISUAL STUDIO 2013\PROJECTS\MYAPPLICATION\DEBUG\MYAPPLICATION.OBJ
