^C:\USERS\SHWETHA.B\DOCUMENTS\VISUAL STUDIO 2013\PROJECTS\MYMATH\MYMATH.CPP
C:\USERS\SHWETHA.B\DOCUMENTS\VISUAL STUDIO 2013\PROJECTS\MYMATH\DEBUG\VC120.PDB
C:\USERS\SHWETHA.B\DOCUMENTS\VISUAL STUDIO 2013\PROJECTS\MYMATH\DEBUG\VC120.IDB
C:\USERS\SHWETHA.B\DOCUMENTS\VISUAL STUDIO 2013\PROJECTS\MYMATH\DEBUG\MYMATH.OBJ
