^C:\USERS\SHWETHA.B\DOCUMENTS\VISUAL STUDIO 2013\PROJECTS\MYMATH\DEBUG\MYMATH.OBJ
C:\USERS\SHWETHA.B\DOCUMENTS\VISUAL STUDIO 2013\PROJECTS\MYMATH\DEBUG\MYMATH.ILK
C:\USERS\SHWETHA.B\DOCUMENTS\VISUAL STUDIO 2013\PROJECTS\MYMATH\DEBUG\MYMATH.DLL
C:\USERS\SHWETHA.B\DOCUMENTS\VISUAL STUDIO 2013\PROJECTS\MYMATH\DEBUG\MYMATH.PDB
