^C:\USERS\SHWETHA.B\DOCUMENTS\VISUAL STUDIO 2013\PROJECTS\MYAPP\DEBUG\MYAPP.OBJ
C:\USERS\SHWETHA.B\DOCUMENTS\VISUAL STUDIO 2013\PROJECTS\MYAPP\DEBUG\MYAPP.ILK
C:\USERS\SHWETHA.B\DOCUMENTS\VISUAL STUDIO 2013\PROJECTS\MYAPP\DEBUG\MYAPP.EXE
C:\USERS\SHWETHA.B\DOCUMENTS\VISUAL STUDIO 2013\PROJECTS\MYAPP\DEBUG\MYAPP.PDB
